<svg width="103" height="103" viewBox="0 0 103 103" fill="none" xmlns="http://www.w3.org/2000/svg">
<path d="M51.4736 9.05273L51.4857 11.0645L51.4736 9.05273Z" fill="#D13232"/>
<path d="M38.7923 43.3018C37.2198 39.9755 33.8282 37.8259 30.1523 37.8259C26.4764 37.8259 23.0851 39.9753 21.5124 43.3018C21.0375 44.3063 21.4665 45.5055 22.4707 45.9804C23.4744 46.4552 24.6734 46.0263 25.1485 45.0219C26.0595 43.0946 28.0238 41.8494 30.1523 41.8494C32.2809 41.8494 34.2452 43.0946 35.1562 45.0219C35.4997 45.7487 36.2221 46.1742 36.9756 46.1742C37.2636 46.1742 37.5563 46.112 37.834 45.9804C38.8381 45.5055 39.2671 44.3063 38.7923 43.3018Z" fill="#D13232"/>
<path d="M81.4588 43.3018C79.8863 39.9755 76.4948 37.8259 72.8188 37.8259C69.1429 37.8259 65.7516 39.9753 64.1789 43.3018C63.704 44.3063 64.133 45.5055 65.1372 45.9804C66.1407 46.4552 67.3401 46.0263 67.815 45.0219C68.726 43.0946 70.6903 41.8494 72.8188 41.8494C74.9474 41.8494 76.9117 43.0946 77.8227 45.0219C78.1662 45.7487 78.8886 46.1742 79.6421 46.1742C79.9301 46.1742 80.223 46.112 80.5005 45.9804C81.5046 45.5055 81.9336 44.3063 81.4588 43.3018Z" fill="#D13232"/>
<path d="M37.1816 81.0984L66.1417 81.0984C67.2525 81.0984 68.1528 80.1977 68.1528 79.0867C68.1528 69.9907 60.7549 62.5905 51.6617 62.5905C42.5684 62.5905 35.1705 69.9909 35.1705 79.0867C35.1705 80.1977 36.0709 81.0984 37.1816 81.0984ZM51.6617 66.614C57.8525 66.614 63.0042 71.1504 63.9685 77.0749L39.3548 77.0749C40.3192 71.1504 45.4708 66.614 51.6617 66.614Z" fill="#D13232"/>
<path d="M87.912 15.1063L87.8739 15.0681C87.0908 14.2803 85.8172 14.2771 85.0298 15.0606C84.2423 15.8442 84.2391 17.118 85.0224 17.9056L85.0604 17.9438C85.4534 18.3389 85.9696 18.5367 86.4861 18.5367C86.9989 18.5367 87.5121 18.3418 87.9045 17.9513C88.6921 17.1677 88.6953 15.8939 87.912 15.1063Z" fill="#D13232"/>
<path d="M93.7573 21.7097C93.0926 20.8198 91.8328 20.6371 90.9425 21.3018C90.0528 21.9666 89.87 23.2272 90.5347 24.1174C104.527 42.8582 101.608 68.5032 85.0455 85.0709C66.54 103.582 36.4292 103.582 17.9237 85.0709C-0.582018 66.5599 -0.582018 36.4399 17.9237 17.9289C34.5051 1.34242 61.1416 -0.583004 79.8821 13.451C80.7715 14.1167 82.0318 13.9354 82.6975 13.046C83.363 12.1566 83.1818 10.8959 82.2927 10.23C72.4758 2.87877 60.2969 -0.712157 47.9985 0.117277C35.5809 0.95536 23.8901 6.27033 15.0794 15.0837C5.3554 24.811 0 37.7437 0 51.4999C0 65.2561 5.3554 78.189 15.0794 87.9161C24.8037 97.643 37.7326 103 51.4846 103C65.2366 103 78.1655 97.643 87.8896 87.9159C96.6929 79.1098 102.006 67.4251 102.85 55.0144C103.685 42.7242 101.089 31.529 93.7573 21.7097Z" fill="#D13232"/>
</svg>
